/rhome/n/nmusic1/workspace/NA/Z4/Z1/main.cpp: In lambda function:
/rhome/n/nmusic1/workspace/NA/Z4/Z1/main.cpp:279:48: warning: comparing floating point with == or != is unsafe [-Wfloat-equal]
         auto fja = [](double x) {  return x == 0 ? 0 : 1/(x*x); };
                                                ^
/rhome/n/nmusic1/workspace/NA/Z4/Z1/main.cpp: In lambda function:
/rhome/n/nmusic1/workspace/NA/Z4/Z1/main.cpp:302:46: warning: comparing floating point with == or != is unsafe [-Wfloat-equal]
       auto cosc = [](double x) { return x == 0 ? 1 : 1/std::cos(x); };
                                              ^
/rhome/n/nmusic1/workspace/NA/Z4/Z1/main.cpp: In lambda function:
/rhome/n/nmusic1/workspace/NA/Z4/Z1/main.cpp:309:46: warning: comparing floating point with == or != is unsafe [-Wfloat-equal]
       auto cosc = [](double x) { return x == 0 ? 1 : std::cos(x) / x; };
                                              ^
/rhome/n/nmusic1/workspace/NA/Z4/Z1/main.cpp: In lambda function:
/rhome/n/nmusic1/workspace/NA/Z4/Z1/main.cpp:318:46: warning: comparing floating point with == or != is unsafe [-Wfloat-equal]
       auto cosc = [](double x) { return x == 0 ? 1 : 1/std::cos(x); };
                                              ^
/rhome/n/nmusic1/workspace/NA/Z4/Z1/main.cpp: In lambda function:
/rhome/n/nmusic1/workspace/NA/Z4/Z1/main.cpp:326:46: warning: comparing floating point with == or != is unsafe [-Wfloat-equal]
       auto cosc = [](double x) { return x == 0 ? 1 : std::cos(x) / x; };
                                              ^
