==23210== Memcheck, a memory error detector
==23210== Copyright (C) 2002-2013, and GNU GPL'd, by Julian Seward et al.
==23210== Using Valgrind-3.10.1 and LibVEX; rerun with -h for copyright info
==23210== Command: /rhome/n/nmusic1/workspace/NA/Z4/Z1/.runme
==23210== Parent PID: 23190
==23210== 
==23210== 
==23210== HEAP SUMMARY:
==23210==     in use at exit: 0 bytes in 0 blocks
==23210==   total heap usage: 33 allocs, 33 frees, 2,781 bytes allocated
==23210== 
==23210== All heap blocks were freed -- no leaks are possible
==23210== 
==23210== For counts of detected and suppressed errors, rerun with: -v
==23210== ERROR SUMMARY: 0 errors from 0 contexts (suppressed: 0 from 0)
