/rhome/n/nmusic1/workspace/NA/Z5/Z1/main.cpp: In function ‘std::vector<double> LossyCompress(std::vector<double>, int)’:
/rhome/n/nmusic1/workspace/NA/Z5/Z1/main.cpp:483:22: warning: comparing floating point with == or != is unsafe [-Wfloat-equal]
         if(pow(2,i)==N){
                      ^
/rhome/n/nmusic1/workspace/NA/Z5/Z1/main.cpp: In function ‘std::vector<double> LossyDecompress(std::vector<double>)’:
/rhome/n/nmusic1/workspace/NA/Z5/Z1/main.cpp:496:22: warning: comparing floating point with == or != is unsafe [-Wfloat-equal]
         if(pow(2,i)==N){
                      ^
/rhome/n/nmusic1/workspace/NA/Z5/Z1/main.cpp: In function ‘int main()’:
/rhome/n/nmusic1/workspace/NA/Z5/Z1/main.cpp:512:10: warning: unused variable ‘t’ [-Wunused-variable]
     bool t=BracketRoot([](double x) { return x + 19; }, 0, a, b, -123);
          ^
/rhome/n/nmusic1/workspace/NA/Z5/Z1/main.cpp: In instantiation of ‘double FindMinimum(FunTip, double, double, double, double, double) [with FunTip = main()::__lambda11]’:
/rhome/n/nmusic1/workspace/NA/Z5/Z1/main.cpp:558:85:   required from here
/rhome/n/nmusic1/workspace/NA/Z5/Z1/main.cpp:437:60: warning: unused variable ‘d’ [-Wunused-variable]
  double a(xfinal - hfinal), c(xfinal), b(xfinal + hfinal), d;
                                                            ^
/rhome/n/nmusic1/workspace/NA/Z5/Z1/main.cpp: In function ‘std::vector<double> LossyCompress(std::vector<double>, int)’:
/rhome/n/nmusic1/workspace/NA/Z5/Z1/main.cpp:489:1: warning: control reaches end of non-void function [-Wreturn-type]
 }
 ^
/rhome/n/nmusic1/workspace/NA/Z5/Z1/main.cpp: In function ‘std::vector<double> LossyDecompress(std::vector<double>)’:
/rhome/n/nmusic1/workspace/NA/Z5/Z1/main.cpp:502:1: warning: control reaches end of non-void function [-Wreturn-type]
 }
 ^
/rhome/n/nmusic1/workspace/NA/Z5/Z1/main.cpp: In function ‘double RegulaFalsiSolve(FunTip, double, double, RegulaFalsiMode, double, int) [with FunTip = main()::__lambda2]’:
/rhome/n/nmusic1/workspace/NA/Z5/Z1/main.cpp:282:1: warning: control reaches end of non-void function [-Wreturn-type]
 }
 ^
/rhome/n/nmusic1/workspace/NA/Z5/Z1/main.cpp: In function ‘double RegulaFalsiSolve(FunTip, double, double, RegulaFalsiMode, double, int) [with FunTip = main()::__lambda3]’:
/rhome/n/nmusic1/workspace/NA/Z5/Z1/main.cpp:282:1: warning: control reaches end of non-void function [-Wreturn-type]
 }
 ^
