==15345== Memcheck, a memory error detector
==15345== Copyright (C) 2002-2013, and GNU GPL'd, by Julian Seward et al.
==15345== Using Valgrind-3.10.1 and LibVEX; rerun with -h for copyright info
==15345== Command: /rhome/n/nmusic1/workspace/NA/Z2/Z1/.runme
==15345== Parent PID: 15282
==15345== 
==15345== 
==15345== HEAP SUMMARY:
==15345==     in use at exit: 0 bytes in 0 blocks
==15345==   total heap usage: 75 allocs, 75 frees, 2,533 bytes allocated
==15345== 
==15345== All heap blocks were freed -- no leaks are possible
==15345== 
==15345== For counts of detected and suppressed errors, rerun with: -v
==15345== ERROR SUMMARY: 0 errors from 0 contexts (suppressed: 0 from 0)
